[
    {
        "id": "bakerloo",
        "name": "Bakerloo",
        "created": "2015-09-17T10:41:25.317",
        "modified": "2015-09-17T10:41:25.317",
        "lineStatuses": [
            {
                "$type": "Tfl.Api.Presentation.Entities.LineStatus, Tfl.Api.Presentation.Entities",
                "id": 0,
                "statusSeverity": 10,
                "statusSeverityDescription": "Good Service",
                "created": "0001-01-01T00:00:00",
                "validityPeriods": []
            }
        ],
        "routeSections": []
    },
    {
        "id": "central",
        "name": "Central",
        "created": "2015-09-17T10:41:25.427",
        "modified": "2015-09-17T10:41:25.427",
        "lineStatuses": [
            {
                "$type": "Tfl.Api.Presentation.Entities.LineStatus, Tfl.Api.Presentation.Entities",
                "id": 0,
                "lineId": "central",
                "statusSeverity": 9,
                "statusSeverityDescription": "Minor Delays",
                "reason": "Central Line: Minor delays between West Ruislip and White City while we fix a signal failure at Perivale. GOOD SERVICE on the rest of the line.",
                "created": "0001-01-01T00:00:00",
                "validityPeriods": [
                    {
                        "$type": "Tfl.Api.Presentation.Entities.ValidityPeriod, Tfl.Api.Presentation.Entities",
                        "fromDate": "2015-09-23T16:16:00",
                        "toDate": "2015-09-24T01:29:00",
                        "isNow": true
                    }
                ],
                "disruption": {
                    "$type": "Tfl.Api.Presentation.Entities.Disruption, Tfl.Api.Presentation.Entities",
                    "category": "RealTime",
                    "categoryDescription": "RealTime",
                    "description": "Central Line: Minor delays between West Ruislip and White City while we fix a signal failure at Perivale. GOOD SERVICE on the rest of the line.",
                    "created": "2015-09-23T16:17:00",
                    "affectedRoutes": [],
                    "affectedStops": [],
                    "closureText": "minorDelays"
                }
            }
        ],
        "routeSections": []
    },
    {
        "id": "circle",
        "name": "Circle",
        "created": "2015-09-17T10:41:25.627",
        "modified": "2015-09-17T10:41:25.627",
        "lineStatuses": [
            {
                "$type": "Tfl.Api.Presentation.Entities.LineStatus, Tfl.Api.Presentation.Entities",
                "id": 0,
                "statusSeverity": 10,
                "statusSeverityDescription": "Good Service",
                "created": "0001-01-01T00:00:00",
                "validityPeriods": []
            }
        ],
        "routeSections": []
    },
    {
        "id": "district",
        "name": "District",
        "created": "2015-09-17T10:41:25.177",
        "modified": "2015-09-17T10:41:25.177",
        "lineStatuses": [
            {
                "$type": "Tfl.Api.Presentation.Entities.LineStatus, Tfl.Api.Presentation.Entities",
                "id": 0,
                "statusSeverity": 10,
                "statusSeverityDescription": "Good Service",
                "created": "0001-01-01T00:00:00",
                "validityPeriods": []
            }
        ],
        "routeSections": []
    },
    {
        "id": "hammersmith-city",
        "name": "Hammersmith & City",
        "created": "2015-09-17T10:41:25.537",
        "modified": "2015-09-17T10:41:25.537",
        "lineStatuses": [
            {
                "$type": "Tfl.Api.Presentation.Entities.LineStatus, Tfl.Api.Presentation.Entities",
                "id": 0,
                "statusSeverity": 10,
                "statusSeverityDescription": "Good Service",
                "created": "0001-01-01T00:00:00",
                "validityPeriods": []
            }
        ],
        "routeSections": []
    },
    {
        "id": "jubilee",
        "name": "Jubilee",
        "created": "2015-09-17T10:41:25.097",
        "modified": "2015-09-17T10:41:25.097",
        "lineStatuses": [
            {
                "$type": "Tfl.Api.Presentation.Entities.LineStatus, Tfl.Api.Presentation.Entities",
                "id": 0,
                "statusSeverity": 10,
                "statusSeverityDescription": "Good Service",
                "created": "0001-01-01T00:00:00",
                "validityPeriods": []
            }
        ],
        "routeSections": []
    },
    {
        "id": "metropolitan",
        "name": "Metropolitan",
        "created": "2015-09-17T10:41:25.567",
        "modified": "2015-09-17T10:41:25.567",
        "lineStatuses": [
            {
                "$type": "Tfl.Api.Presentation.Entities.LineStatus, Tfl.Api.Presentation.Entities",
                "id": 0,
                "statusSeverity": 10,
                "statusSeverityDescription": "Good Service",
                "created": "0001-01-01T00:00:00",
                "validityPeriods": []
            }
        ],
        "routeSections": []
    },
    {
        "id": "northern",
        "name": "Northern",
        "created": "2015-09-17T10:41:25.66",
        "modified": "2015-09-17T10:41:25.66",
        "lineStatuses": [
            {
                "$type": "Tfl.Api.Presentation.Entities.LineStatus, Tfl.Api.Presentation.Entities",
                "id": 0,
                "statusSeverity": 10,
                "statusSeverityDescription": "Good Service",
                "created": "0001-01-01T00:00:00",
                "validityPeriods": []
            }
        ],
        "routeSections": []
    },
    {
        "id": "piccadilly",
        "name": "Piccadilly",
        "created": "2015-09-17T10:41:25.503",
        "modified": "2015-09-17T10:41:25.503",
        "lineStatuses": [
            {
                "$type": "Tfl.Api.Presentation.Entities.LineStatus, Tfl.Api.Presentation.Entities",
                "id": 0,
                "statusSeverity": 10,
                "statusSeverityDescription": "Good Service",
                "created": "0001-01-01T00:00:00",
                "validityPeriods": []
            }
        ],
        "routeSections": []
    },
    {
        "id": "victoria",
        "name": "Victoria",
        "created": "2015-09-17T10:41:25.41",
        "modified": "2015-09-17T10:41:25.41",
        "lineStatuses": [
            {
                "$type": "Tfl.Api.Presentation.Entities.LineStatus, Tfl.Api.Presentation.Entities",
                "id": 0,
                "statusSeverity": 10,
                "statusSeverityDescription": "Good Service",
                "created": "0001-01-01T00:00:00",
                "validityPeriods": []
            }
        ],
        "routeSections": []
    },
    {
        "id": "waterloo-city",
        "name": "Waterloo & City",
        "created": "2015-09-17T10:41:25.677",
        "modified": "2015-09-17T10:41:25.677",
        "lineStatuses": [
            {
                "$type": "Tfl.Api.Presentation.Entities.LineStatus, Tfl.Api.Presentation.Entities",
                "id": 0,
                "statusSeverity": 10,
                "statusSeverityDescription": "Good Service",
                "created": "0001-01-01T00:00:00",
                "validityPeriods": []
            }
        ],
        "routeSections": []
    }
]